  [{
          "QuickStart": {
              "title": "QuickStart"
          }
      },
      {
          "USD": {
              "title": "USD contract interface "
          }
      },
      {
          "ChooseProviders": {
              "title": "Choose Providers"
          }
      }, {
          "AddWalletKeys": {
              "title": "Add Wallet Keys"
          }
      }, {
          "CreateWalletAccount": {
              "title": "Create new wallet account"
          }
      }, {
          "AddCustomProvider": {
              "title": "Add Custom Provider"
          }
      }, {
          "AccountMethods": {
              "title": "Account Methods"
          }
      }, {
          "Conversions": {
              "title": "Utils for conversions"
          }
      }, {
          "AdminContracts": {
              "title": "Admin contracts interfaces"
          }
      }, {
          "OperationsContracts": {
              "title": "Operations contracts interfaces"
          }
      }, {
          "EstimateGas": {
              "title": "Estimate gas and costs"
          }
      }, {
          "HDwallet": {
              "title": "Import keys from mnemonic"
          }
      }
  ]
